Division,WeightClassKg,Place,Name,Team,BodyweightKg,Best3SquatKg,Best3BenchKg,Best3DeadliftKg,TotalKg,Equipment,Event,Sex,BirthDate
Boys,51.71,1,Noah Estrada,Agua Dulce,51.66,145.15,86.18,174.63,405.97,Single-ply,SBD,M,
Boys,51.71,2,Deion Vega,Agua Dulce,51.71,136.08,79.38,149.69,365.14,Single-ply,SBD,M,
Boys,51.71,3,Ayden Benavidez,Corpus Christi London,50.98,117.93,65.77,122.47,306.17,Single-ply,SBD,M,
Boys,51.71,4,Demarcus Gonzalez,Premont,47.08,102.06,49.9,115.67,267.62,Single-ply,SBD,M,
Boys,51.71,DQ,Jose Chapa,Ben Bolt-Palito Blanco,50.44,115.67,,,,Single-ply,SBD,M,
Boys,55.79,1,Tanner Weaver,Orange Grove,54.79,142.88,81.65,147.42,371.95,Single-ply,SBD,M,
Boys,55.79,2,Michael Contreras,Alice,53.07,124.74,83.91,151.95,360.61,Single-ply,SBD,M,
Boys,55.79,3,Juan Ramirez,Agua Dulce,53.98,120.2,61.23,145.15,326.59,Single-ply,SBD,M,
Boys,59.87,1,Joseph Rivera-Giprich,Mathis,59.6,183.7,111.13,213.19,508.02,Single-ply,SBD,M,
Boys,59.87,2,Ryan Garcia,Corpus Christi London,59.78,165.56,113.4,185.97,464.93,Single-ply,SBD,M,
Boys,59.87,3,James Cuevas,Corpus Christi London,59.42,136.08,86.18,190.51,412.77,Single-ply,SBD,M,
Boys,59.87,4,Rene Ramirez,Agua Dulce,59.33,124.74,77.11,167.83,369.68,Single-ply,SBD,M,
Boys,59.87,5,Anthonie Cordova,Ingleside,58.69,117.93,70.31,136.08,324.32,Single-ply,SBD,M,
Boys,59.87,6,Ivan Moreno,Ben Bolt-Palito Blanco,59.78,124.74,86.18,113.4,324.32,Single-ply,SBD,M,
Boys,59.87,7,Byron Carter,Orange Grove,59.87,95.25,58.97,124.74,278.96,Single-ply,SBD,M,
Boys,59.87,DQ,Alejandro Gonzalez,Freer,59.6,138.35,83.91,,,Single-ply,SBD,M,
Boys,67.13,1,Elyon Ybarra,Mathis,67.13,204.12,147.42,192.78,544.31,Single-ply,SBD,M,
Boys,67.13,2,Gilbert Perez,Corpus Christi Tuloso-Midway,65.68,176.9,108.86,190.51,476.27,Single-ply,SBD,M,
Boys,67.13,3,GianCarlo Mirabal,Corpus Christi London,65.14,183.7,102.06,188.24,474,Single-ply,SBD,M,
Boys,67.13,4,Geronimo Torres,Mathis,65.95,170.1,92.99,183.7,446.79,Single-ply,SBD,M,
Boys,67.13,5,Ian Lockard,Orange Grove,67.13,179.17,86.18,161.03,426.38,Single-ply,SBD,M,
Boys,67.13,6,Itzac Cruz,Odem,65.95,147.42,115.67,156.49,419.57,Single-ply,SBD,M,
Boys,67.13,7,Isaac Tamayo,Ingleside,65.77,165.56,113.4,113.4,392.36,Single-ply,SBD,M,
Boys,67.13,8,Matthew Rodriguez,Corpus Christi Tuloso-Midway,64.32,140.61,88.45,145.15,374.21,Single-ply,SBD,M,
Boys,67.13,9,Justin Pierce,Orange Grove,61.23,131.54,61.23,149.69,342.46,Single-ply,SBD,M,
Boys,67.13,DQ,Marco Gonzalez,Odem,67.13,188.24,,,,Single-ply,SBD,M,
Boys,67.13,DQ,Victor Chansen,Premont,61.6,142.88,,,,Single-ply,SBD,M,
Boys,67.13,DQ,Jaiden Gutierrez,Corpus Christi Tuloso-Midway,62.78,122.47,,,,Single-ply,SBD,M,
Boys,74.84,1,Carson Cable,Corpus Christi London,74.03,208.65,113.4,231.33,553.38,Single-ply,SBD,M,
Boys,74.84,2,Nygel Hudson,Ingleside,70.67,185.97,104.33,174.63,464.93,Single-ply,SBD,M,
Boys,74.84,3,Josiah Carrillo,Corpus Christi Tuloso-Midway,73.57,138.35,63.5,158.76,360.61,Single-ply,SBD,M,
Boys,74.84,4,Mason Guerrero,Orange Grove,74.48,138.35,65.77,142.88,347,Single-ply,SBD,M,
Boys,74.84,5,Dylan Medina,Ben Bolt-Palito Blanco,67.31,127.01,72.57,140.61,340.19,Single-ply,SBD,M,
Boys,74.84,DQ,Jose Santos,Premont,70.4,102.06,81.65,,,Single-ply,SBD,M,
Boys,82.1,1,Jaxon Mabile,Ingleside,80.56,306.17,181.44,283.5,771.11,Single-ply,SBD,M,
Boys,82.1,2,Jacob Charles,Corpus Christi London,82.01,247.21,156.49,238.14,641.83,Single-ply,SBD,M,
Boys,82.1,3,Javier Salas,Corpus Christi London,80.47,242.67,156.49,235.87,635.03,Single-ply,SBD,M,
Boys,82.1,4,Ace Navarijo,Corpus Christi London,81.37,229.06,165.56,217.72,612.35,Single-ply,SBD,M,
Boys,82.1,5,Donald Mann,Agua Dulce,79.92,215.46,147.42,183.7,546.58,Single-ply,SBD,M,
Boys,82.1,6,Aiden Wilde,Alice,80.38,199.58,122.47,208.65,530.7,Single-ply,SBD,M,
Boys,82.1,7,Ethan Ybarra,Mathis,77.75,204.12,115.67,192.78,512.56,Single-ply,SBD,M,
Boys,82.1,8,Carlos Vinton,Agua Dulce,79.92,190.51,115.67,199.58,505.76,Single-ply,SBD,M,
Boys,82.1,9,Austin Neil,Ingleside,80.47,183.7,115.67,206.38,505.76,Single-ply,SBD,M,
Boys,82.1,10,Gavin Favela,Corpus Christi Tuloso-Midway,80.74,167.83,115.67,183.7,467.2,Single-ply,SBD,M,
Boys,82.1,11,Jake Martinez,Freer,80.38,149.69,83.91,158.76,392.36,Single-ply,SBD,M,
Boys,82.1,12,Justin Castillo,Premont,78.74,108.86,70.31,147.42,326.59,Single-ply,SBD,M,
Boys,89.81,1,Seth Morgan,Ingleside,89.72,251.74,181.44,260.82,694,Single-ply,SBD,M,
Boys,89.81,2,Matt Perez,Mathis,88.36,276.69,158.76,244.94,680.39,Single-ply,SBD,M,
Boys,89.81,3,Arnold Navarro,Ben Bolt-Palito Blanco,83.01,219.99,124.74,226.8,571.53,Single-ply,SBD,M,
Boys,89.81,4,Nick Lazo,Corpus Christi Tuloso-Midway,82.64,206.38,124.74,226.8,557.92,Single-ply,SBD,M,
Boys,89.81,5,Alex Beltran,Odem,84.82,215.46,117.93,204.12,537.51,Single-ply,SBD,M,
Boys,89.81,6,Nemo Jacobo,Agua Dulce,83.01,226.8,117.93,190.51,535.24,Single-ply,SBD,M,
Boys,89.81,7,Cesar Gonzales,Mathis,88.9,185.97,136.08,210.92,532.97,Single-ply,SBD,M,
Boys,89.81,8,Asher Dupuis,Corpus Christi London,88.36,208.65,142.88,172.37,523.9,Single-ply,SBD,M,
Boys,89.81,9,Eduardo Medina,Odem,89.81,192.78,115.67,161.03,469.47,Single-ply,SBD,M,
Boys,89.81,10,Caiden Boeker,Premont,85.64,122.47,79.38,181.44,383.29,Single-ply,SBD,M,
Boys,89.81,11,Thaddeus Cisneros,Alice,89.36,124.74,86.18,151.95,362.87,Single-ply,SBD,M,
Boys,89.81,12,JT Torres,Premont,83.82,102.06,86.18,142.88,331.12,Single-ply,SBD,M,
Boys,89.81,DQ,Esteban Peña,Premont,87.27,,,,,Single-ply,SBD,M,
Boys,99.79,1,Alan Rodriguez,Corpus Christi Tuloso-Midway,90.99,272.16,158.76,242.67,673.58,Single-ply,SBD,M,
Boys,99.79,2,James Dorsey,Corpus Christi London,98.97,215.46,149.69,242.67,607.81,Single-ply,SBD,M,
Boys,99.79,3,Jadon Sanchez,Ingleside,93.53,249.48,129.27,226.8,605.55,Single-ply,SBD,M,
Boys,99.79,4,Kaleb Garza,Freer,91.08,195.04,124.74,204.12,523.9,Single-ply,SBD,M,
Boys,99.79,5,Sean Quintanilla,Corpus Christi Tuloso-Midway,94.44,183.7,117.93,151.95,453.59,Single-ply,SBD,M,
Boys,99.79,6,Ramiro Cantu,Alice,98.79,183.7,102.06,151.95,437.72,Single-ply,SBD,M,
Boys,99.79,7,Dominick Huerta,Agua Dulce,95.35,104.33,102.06,142.88,349.27,Single-ply,SBD,M,
Boys,99.79,8,Jim Aguillon,Freer,97.7,142.88,65.77,117.93,326.59,Single-ply,SBD,M,
Boys,99.79,9,Rick Rios,Orange Grove,90.54,104.33,56.7,138.35,299.37,Single-ply,SBD,M,
Boys,109.77,1,Lance Lopez,Orange Grove,103.51,294.84,183.7,226.8,705.34,Single-ply,SBD,M,
Boys,109.77,2,Ivan Rangel,Agua Dulce,107.14,244.94,147.42,242.67,635.03,Single-ply,SBD,M,
Boys,109.77,3,Eric Stapp,Ingleside,108.68,235.87,154.22,199.58,589.67,Single-ply,SBD,M,
Boys,109.77,4,Nathan Edlin,Ingleside,109.77,217.72,136.08,231.33,585.13,Single-ply,SBD,M,
Boys,109.77,5,Donnie Mireles,Freer,107.5,204.12,124.74,190.51,519.36,Single-ply,SBD,M,
Boys,109.77,6,Israel Hernandez,Mathis,108.59,165.56,133.81,183.7,483.08,Single-ply,SBD,M,
Boys,109.77,7,Joe Daniel Flores,Corpus Christi Tuloso-Midway,106.87,201.85,124.74,145.15,471.74,Single-ply,SBD,M,
Boys,109.77,8,Ethan Sanchez #3,Alice,103.96,145.15,77.11,167.83,390.09,Single-ply,SBD,M,
Boys,109.77,9,Ruben Contreras,Freer,108.32,176.9,72.57,140.61,390.09,Single-ply,SBD,M,
Boys,109.77,10,Dakota Cardona,Alice,106.78,124.74,72.57,117.93,315.25,Single-ply,SBD,M,
Boys,124.74,1,Robert Kroen,Corpus Christi Tuloso-Midway,121.93,281.23,188.24,242.67,712.14,Single-ply,SBD,M,
Boys,124.74,2,Arturo Gallegos III,Ingleside,117.48,299.37,147.42,256.28,703.07,Single-ply,SBD,M,
Boys,124.74,3,Victor Espinoza,Agua Dulce,119.52,231.33,151.95,231.33,614.62,Single-ply,SBD,M,
Boys,124.74,4,Aaron Lichtenberger,Corpus Christi London,122.47,229.06,156.49,183.7,569.26,Single-ply,SBD,M,
Boys,124.74,5,Javier Perez,Freer,123.74,226.8,97.52,188.24,512.56,Single-ply,SBD,M,
Boys,124.74,6,Raul Pacheco,Alice,120.93,204.12,120.2,172.37,496.68,Single-ply,SBD,M,
Boys,124.74,7,Alejandro Delgado,Agua Dulce,115.03,190.51,117.93,183.7,492.15,Single-ply,SBD,M,
Boys,124.74,8,Logan McGrath,Ingleside,118.93,188.24,106.59,183.7,478.54,Single-ply,SBD,M,
Boys,124.74,9,Jacob Ramos #5,Ben Bolt-Palito Blanco,118.39,181.44,90.72,183.7,455.86,Single-ply,SBD,M,
Boys,124.74,10,Christopher Goodman,Ben Bolt-Palito Blanco,111.86,142.88,124.74,158.76,426.38,Single-ply,SBD,M,
Boys,139.71,1,Moses Saucedo,Mathis,126.19,208.65,165.56,206.38,580.6,Single-ply,SBD,M,
Boys,139.71,2,Jacob Ramos #4,Agua Dulce,127.37,195.04,113.4,183.7,492.15,Single-ply,SBD,M,
Boys,139.71,3,Adam Alvarez,Corpus Christi Tuloso-Midway,128.82,170.1,104.33,142.88,417.3,Single-ply,SBD,M,
