Division,WeightClassKg,Place,Name,Team,BodyweightKg,Best3SquatKg,Best3BenchKg,Best3DeadliftKg,TotalKg,Equipment,Event,Sex,BirthDate
Boys,55.79,1,Jorge Martinez,Los Fresnos,54.79,188.24,86.18,208.65,483.08,Single-ply,SBD,M,
Boys,55.79,2,Joe Hernandez #3,Los Fresnos,55.79,174.63,122.47,163.29,460.4,Single-ply,SBD,M,
Boys,55.79,3,Alejandro Garza,Brownsville Pace,55.79,102.06,72.57,106.59,281.23,Single-ply,SBD,M,
Boys,55.79,DQ,Emiliano Longoria,Harlingen,55.79,83.91,,,,Single-ply,SBD,M,
Boys,55.79,DQ,Thomas Sandoval,Los Fresnos,55.7,163.29,102.06,,,Single-ply,SBD,M,
Boys,67.13,1,Isaiah Perales,Harlingen,65.95,195.04,124.74,199.58,519.36,Single-ply,SBD,M,
Boys,67.13,2,Aaron Munoz,Harlingen,65.68,124.74,70.31,142.88,337.93,Single-ply,SBD,M,
Boys,67.13,DQ,Matthew Elizondo,Harlingen,61.96,176.9,129.27,,,Single-ply,SBD,M,
Boys,74.84,1,Sam Burton,Los Fresnos,69.49,242.67,122.47,226.8,591.94,Single-ply,SBD,M,
Boys,74.84,2,Erick Garcia #7,Los Fresnos,71.67,229.06,147.42,213.19,589.67,Single-ply,SBD,M,
Boys,74.84,3,Nicholas Perez #7,Brownsville Pace,74.57,199.58,124.74,167.83,492.15,Single-ply,SBD,M,
Boys,74.84,4,Adrian Gonzalez,Harlingen,73.39,158.76,115.67,188.24,462.66,Single-ply,SBD,M,
Boys,74.84,5,Kevin Martinez,Brownsville Porter,70.76,74.84,70.31,106.59,251.74,Single-ply,SBD,M,
Boys,74.84,DQ,Max Quintanilla,Brownsville Pace,74.84,,,,,Single-ply,SBD,M,
Boys,74.84,DQ,Bono Santiesteban,Los Fresnos,72.85,210.92,129.27,,,Single-ply,SBD,M,
Boys,74.84,DQ,Ricky Lozano,Pharr Valley View,74.84,,,,,Single-ply,SBD,M,
Boys,82.1,1,Josue Ceron,Los Fresnos,80.56,240.4,151.95,240.4,632.76,Single-ply,SBD,M,
Boys,82.1,2,Kian Torres,Harlingen,81.47,226.8,127.01,217.72,571.53,Single-ply,SBD,M,
Boys,82.1,3,Frank Quintero,Los Fresnos,79.2,199.58,97.52,174.63,471.74,Single-ply,SBD,M,
Boys,82.1,4,Luis Garza,Brownsville Pace,77.38,136.08,102.06,149.69,387.82,Single-ply,SBD,M,
Boys,82.1,5,Eric Arevalo,Pharr Valley View,80.29,129.27,77.11,142.88,349.27,Single-ply,SBD,M,
Boys,89.81,1,Zeke Aguilar,Los Fresnos,88.81,263.08,154.22,240.4,657.71,Single-ply,SBD,M,
Boys,89.81,2,Thomas Larios,Harlingen,88.81,183.7,108.86,163.29,455.86,Single-ply,SBD,M,
Boys,89.81,3,Vincent Guitron,Brownsville Porter,89.81,158.76,92.99,197.31,449.06,Single-ply,SBD,M,
Boys,89.81,4,Norberto Uriegas,Brownsville Porter,88.27,115.67,79.38,142.88,337.93,Single-ply,SBD,M,
Boys,89.81,5,Omar Nava,Brownsville Pace,89.63,108.86,65.77,115.67,290.3,Single-ply,SBD,M,
Boys,89.81,6,Sito Rodriguez,Brownsville Porter,89.72,97.52,54.43,124.74,276.69,Single-ply,SBD,M,
Boys,89.81,DQ,Carlos Nava,Brownsville Porter,84.37,72.57,52.16,,,Single-ply,SBD,M,
Boys,89.81,DQ,Arthur Emerson,Brownsville Pace,89.81,199.58,,,,Single-ply,SBD,M,
Boys,89.81,DQ,Jesús Flores,Pharr Valley View,88.81,176.9,,,,Single-ply,SBD,M,
Boys,99.79,1,Nathan Evans,Los Fresnos,98.52,258.55,154.22,247.21,659.98,Single-ply,SBD,M,
Boys,99.79,2,Izaiah Rosales-Bell,Harlingen,98.25,247.21,165.56,210.92,623.69,Single-ply,SBD,M,
Boys,99.79,3,Ricardo Alvarez,Brownsville Pace,95.25,233.6,142.88,183.7,560.19,Single-ply,SBD,M,
Boys,99.79,4,Angel Giron,Brownsville Porter,99.79,204.12,104.33,204.12,512.56,Single-ply,SBD,M,
Boys,99.79,5,Francisco Garza,Brownsville Porter,95.71,149.69,102.06,161.03,412.77,Single-ply,SBD,M,
Boys,99.79,6,Carlos Rivera,Pharr Valley View,99.79,142.88,111.13,147.42,401.43,Single-ply,SBD,M,
Boys,109.77,1,Daniel Ramirez,Los Fresnos,109.77,274.42,183.7,238.14,696.26,Single-ply,SBD,M,
Boys,109.77,2,Ramzi Memik,Harlingen,109.77,249.48,142.88,199.58,591.94,Single-ply,SBD,M,
Boys,109.77,3,Estevan Cisneros,Brownsville Porter,104.33,215.46,142.88,219.99,578.33,Single-ply,SBD,M,
Boys,109.77,4,Isaiah Salinas,Brownsville Pace,107.95,201.85,120.2,165.56,487.61,Single-ply,SBD,M,
Boys,124.74,1,Kevin Garcia,Brownsville Pace,116.75,263.08,151.95,240.4,655.44,Single-ply,SBD,M,
Boys,124.74,2,Kaleb Loredo,Brownsville Pace,118.75,263.08,142.88,215.46,621.42,Single-ply,SBD,M,
Boys,124.74,3,Andres Avila,Harlingen,123.83,235.87,167.83,206.38,610.08,Single-ply,SBD,M,
Boys,139.71,1,Jaime Palafox,Los Fresnos,136.35,288.03,181.44,258.55,728.02,Single-ply,SBD,M,
Boys,139.71,2,Anthony Johnson,Harlingen,134.99,226.8,142.88,181.44,551.11,Single-ply,SBD,M,
Boys,139.71,3,Roy Reyna,Harlingen,132.99,219.99,140.61,183.7,544.31,Single-ply,SBD,M,
