Division,WeightClassKg,Place,Name,Team,BodyweightKg,Best3SquatKg,Best3BenchKg,Best3DeadliftKg,TotalKg,Equipment,Event,Sex
Boys,51.71,1,Angel Bermudez,Poteet,50.8,145.15,95.25,151.95,392.36,Single-ply,SBD,M
Boys,51.71,2,Jermaine Mendiola,Somerset,51.48,165.56,79.38,142.88,387.82,Single-ply,SBD,M
Boys,51.71,3,Oziel Padilla,Natalia,51.53,147.42,68.04,149.69,365.14,Single-ply,SBD,M
Boys,51.71,4,Maverick Graham,Lytle,48.44,97.52,56.7,108.86,263.08,Single-ply,SBD,M
Boys,51.71,5,Seth Aguinaga,Lytle,49.62,92.99,49.9,113.4,256.28,Single-ply,SBD,M
Boys,55.79,6,Jose Rocha,Somerset,51.94,45.36,31.75,81.65,158.76,Single-ply,SBD,M
Boys,51.71,DQ,Roy Trevino,Poteet,46.27,,,,,Single-ply,SBD,M
Boys,55.79,1,Ricky Guerra,Poteet,55.79,188.24,117.93,199.58,505.76,Single-ply,SBD,M
Boys,55.79,2,Max Obregon,Dilley,55.79,185.97,106.59,185.97,478.54,Single-ply,SBD,M
Boys,59.87,3,Orlando Gonzales,Natalia,55.97,124.74,77.11,156.49,358.34,Single-ply,SBD,M
Boys,55.79,4,Raul Guerra,Poteet,54.88,122.47,79.38,142.88,344.73,Single-ply,SBD,M
Boys,55.79,5,Daniel Martinez #19,Dilley,54.98,113.4,79.38,136.08,328.85,Single-ply,SBD,M
Boys,55.79,6,Sebastian Estrada,Somerset,55.7,122.47,63.5,138.35,324.32,Single-ply,SBD,M
Boys,55.79,7,Michael Donato,San Antonio Memorial,55.07,117.93,63.5,115.67,297.1,Single-ply,SBD,M
Boys,55.79,8,Manuel Saldana,Natalia,51.98,115.67,54.43,124.74,294.84,Single-ply,SBD,M
Boys,55.79,9,Rudy Rios,Devine,53.8,104.33,63.5,122.47,290.3,Single-ply,SBD,M
Boys,55.79,10,Joe Anthony Oliva,Poteet,55.52,97.52,56.7,136.08,290.3,Single-ply,SBD,M
Boys,55.79,11,Austin Schlemper,Universal City Randolph,52.16,113.4,54.43,113.4,281.23,Single-ply,SBD,M
Boys,55.79,12,Michael Ortiz,Somerset,54.43,49.9,45.36,102.06,197.31,Single-ply,SBD,M
Boys,55.79,DQ,Dimas Tenorio,Crystal City,54.7,,,,,Single-ply,SBD,M
Boys,59.87,1,Alan Espinoza,Dilley,59.78,188.24,102.06,195.04,485.34,Single-ply,SBD,M
Boys,59.87,2,Mark Livesay,Floresville,59.06,174.63,102.06,176.9,453.59,Single-ply,SBD,M
Boys,67.13,3,Nathan Pena,Dilley,59.96,163.29,95.25,154.22,412.77,Single-ply,SBD,M
Boys,59.87,4,Matthew Medrano,Pearsall,59.24,156.49,74.84,170.1,401.43,Single-ply,SBD,M
Boys,59.87,5,Carlos Ocampo,Natalia,56.15,136.08,68.04,161.03,365.14,Single-ply,SBD,M
Boys,59.87,6,Robert Rendon,Crystal City,59.33,142.88,72.57,138.35,353.8,Single-ply,SBD,M
Boys,59.87,7,Dj Witt,La Pryor,58.79,120.2,86.18,145.15,351.53,Single-ply,SBD,M
Boys,59.87,8,Raul Ocampo,Natalia,56.52,124.74,65.77,138.35,328.85,Single-ply,SBD,M
Boys,59.87,9,Paul Santana,Devine,57.7,124.74,56.7,117.93,299.37,Single-ply,SBD,M
Boys,59.87,10,Garrison Kindred,Castroville Medina Valley,58.6,99.79,68.04,122.47,290.3,Single-ply,SBD,M
Boys,59.87,DQ,Adrian Esquibel,Devine,59.78,,,,,Single-ply,SBD,M
Boys,59.87,DQ,Kris Imhof,San Antonio Cole,58.88,147.42,,,,Single-ply,SBD,M
Boys,67.13,1,Felix Gutierrez,Crystal City,64.14,197.31,131.54,199.58,528.44,Single-ply,SBD,M
Boys,67.13,2,Zach Trujillo,Universal City Randolph,63.5,181.44,99.79,183.7,464.93,Single-ply,SBD,M
Boys,67.13,3,Jose Flores #3,San Antonio Kennedy,66.13,167.83,106.59,183.7,458.13,Single-ply,SBD,M
Boys,67.13,4,Calvin Starnes,Bandera,66.13,158.76,99.79,172.37,430.91,Single-ply,SBD,M
Boys,67.13,5,Juan Medina,Floresville,65.95,156.49,97.52,165.56,419.57,Single-ply,SBD,M
Boys,67.13,6,Martin Delgado,Pearsall,63.59,147.42,97.52,167.83,412.77,Single-ply,SBD,M
Boys,67.13,7,Christian Cedeno,Lytle,66.59,163.29,86.18,158.76,408.23,Single-ply,SBD,M
Boys,67.13,8,Sid Alcoser,Somerset,66.95,163.29,77.11,158.76,399.16,Single-ply,SBD,M
Boys,67.13,9,Aaron Realme,Pearsall,60.51,154.22,83.91,154.22,392.36,Single-ply,SBD,M
Boys,67.13,10,Rene Rodriguez,Pearsall,60.96,131.54,92.99,149.69,374.21,Single-ply,SBD,M
Boys,67.13,11,Storm Brown,Floresville,65.23,129.27,92.99,149.69,371.95,Single-ply,SBD,M
Boys,67.13,12,Raymon Garcia,San Antonio Memorial,63.05,124.74,86.18,145.15,356.07,Single-ply,SBD,M
Boys,67.13,13,Michael Gutierrez,San Antonio East Central,64.77,136.08,79.38,136.08,351.53,Single-ply,SBD,M
Boys,67.13,14,Ivan Fernandez,Castroville Medina Valley,67.13,136.08,79.38,136.08,351.53,Single-ply,SBD,M
Boys,67.13,15,Joe Garza,Dilley,61.23,142.88,68.04,131.54,342.46,Single-ply,SBD,M
Boys,74.84,16,Anthony Estrada,Somerset,67.31,129.27,72.57,136.08,337.93,Single-ply,SBD,M
Boys,67.13,17,Alex Gill,Universal City Randolph,64.41,122.47,72.57,124.74,319.78,Single-ply,SBD,M
Boys,67.13,18,Arturo Rodriguez,San Antonio Kennedy,64.86,111.13,65.77,136.08,312.98,Single-ply,SBD,M
Boys,67.13,19,Chris Benavedez,Dilley,67.13,104.33,70.31,117.93,292.57,Single-ply,SBD,M
Boys,67.13,20,Isaiah Sandavol,Poteet,67.13,79.38,70.31,111.13,260.82,Single-ply,SBD,M
Boys,67.13,21,Zack Whiteley,Castroville Medina Valley,65.95,92.99,52.16,108.86,254.01,Single-ply,SBD,M
Boys,67.13,22,Dakota Mendiola,Somerset,61.14,90.72,52.16,102.06,244.94,Single-ply,SBD,M
Boys,67.13,23,Michael Camacho,San Antonio Memorial,63.23,74.84,38.56,129.27,242.67,Single-ply,SBD,M
Boys,67.13,DQ,Raul Nombrano,Rocksprings,61.23,,,,,Single-ply,SBD,M
Boys,74.84,1,Kutter Schmidt,Devine,67.95,219.99,122.47,188.24,530.7,Single-ply,SBD,M
Boys,74.84,2,Nathan Medrano,Lytle,69.58,226.8,122.47,170.1,519.36,Single-ply,SBD,M
Boys,74.84,3,Jarett Moreno,San Antonio East Central,72.39,204.12,124.74,188.24,517.1,Single-ply,SBD,M
Boys,74.84,4,John Pond,San Antonio East Central,72.39,183.7,108.86,204.12,496.68,Single-ply,SBD,M
Boys,74.84,5,Scott Gonzales,Floresville,69.22,183.7,113.4,185.97,483.08,Single-ply,SBD,M
Boys,74.84,6,Antonio Martinez,Lytle,73.84,174.63,113.4,181.44,469.47,Single-ply,SBD,M
Boys,74.84,7,Steven Nicholson,Natalia,74.12,183.7,83.91,190.51,458.13,Single-ply,SBD,M
Boys,74.84,8,Tyler Gould,Pleasanton,67.59,174.63,99.79,181.44,455.86,Single-ply,SBD,M
Boys,74.84,9,Miguel Rivera,Universal City Randolph,70.03,161.03,99.79,185.97,446.79,Single-ply,SBD,M
Boys,74.84,10,Jerren Scott,San Antonio Cole,72.94,163.29,115.67,151.95,430.91,Single-ply,SBD,M
Boys,74.84,11,Gus Herring,Floresville,74.66,154.22,74.84,190.51,419.57,Single-ply,SBD,M
Boys,74.84,12,Alex Paredes,Natalia,74.03,181.44,70.31,158.76,410.5,Single-ply,SBD,M
Boys,74.84,13,Mark Saldana,San Antonio East Central,74.3,147.42,106.59,142.88,396.89,Single-ply,SBD,M
Boys,74.84,14,Sergio Sanchez,Natalia,74.39,147.42,81.65,163.29,392.36,Single-ply,SBD,M
Boys,74.84,15,John Ray Gonzales,La Pryor,68.22,145.15,86.18,158.76,390.09,Single-ply,SBD,M
Boys,74.84,16,Eric Garcia,Lytle,73.03,156.49,83.91,149.69,390.09,Single-ply,SBD,M
Boys,74.84,17,Aaron Davalos,San Antonio Kennedy,69.58,122.47,99.79,158.76,381.02,Single-ply,SBD,M
Boys,74.84,18,Isaac Gonzalez,San Antonio Memorial,74.57,149.69,79.38,149.69,378.75,Single-ply,SBD,M
Boys,74.84,19,Adrian Sustaita,Castroville Medina Valley,70.49,142.88,74.84,158.76,376.48,Single-ply,SBD,M
Boys,74.84,20,Johnathan Edwards,Pleasanton,67.59,133.81,74.84,158.76,367.41,Single-ply,SBD,M
Boys,74.84,21,Brock Gonzales,Universal City Randolph,74.66,136.08,81.65,142.88,360.61,Single-ply,SBD,M
Boys,74.84,22,Sol Rodriguez,Pearsall,68.58,124.74,79.38,147.42,351.53,Single-ply,SBD,M
Boys,74.84,23,Matt Esparza,San Antonio Memorial,68.49,106.59,70.31,149.69,326.59,Single-ply,SBD,M
Boys,74.84,24,Mario Benivetez,Rocksprings,67.77,99.79,68.04,117.93,285.76,Single-ply,SBD,M
Boys,74.84,25,Elijah Rollins,Somerset,70.31,83.91,61.23,102.06,247.21,Single-ply,SBD,M
Boys,74.84,DQ,Spencer Taylor,Somerset,69.13,,,,,Single-ply,SBD,M
Boys,74.84,DQ,Derrick Santos,Poteet,73.48,,,,,Single-ply,SBD,M
Boys,74.84,DQ,Hunter Duplessis,San Antonio Cole,69.85,120.2,,,,Single-ply,SBD,M
Boys,74.84,DQ,Alec Oilar,San Antonio Cole,70.4,124.74,74.84,,,Single-ply,SBD,M
Boys,74.84,DQ,Nick Cervantez,Poteet,73.94,,,,,Single-ply,SBD,M
Boys,82.1,1,Orlando Medrano,Lytle,80.92,215.46,133.81,219.99,569.26,Single-ply,SBD,M
Boys,82.1,2,Raul Chavez,San Antonio East Central,80.83,219.99,131.54,204.12,555.65,Single-ply,SBD,M
Boys,82.1,3,Christopher Vinton,Pearsall,78.83,217.72,124.74,204.12,546.58,Single-ply,SBD,M
Boys,82.1,4,Thomas Trevino,Pleasanton,80.74,204.12,124.74,208.65,537.51,Single-ply,SBD,M
Boys,82.1,5,Robert Castillo,La Pryor,81.92,199.58,122.47,208.65,530.7,Single-ply,SBD,M
Boys,82.1,6,Jonathan Darby,Lytle,80.1,174.63,106.59,206.38,487.61,Single-ply,SBD,M
Boys,82.1,7,Steve Medrano,Dilley,80.01,190.51,108.86,181.44,480.81,Single-ply,SBD,M
Boys,82.1,8,Andres Moncada,Karnes City,80.1,183.7,90.72,192.78,467.2,Single-ply,SBD,M
Boys,82.1,9,Ashton Williams,San Antonio East Central,78.56,170.1,104.33,181.44,455.86,Single-ply,SBD,M
Boys,82.1,10,Zach Reeves,San Antonio Cole,81.74,156.49,108.86,165.56,430.91,Single-ply,SBD,M
Boys,89.81,11,Justin Villanueva,La Pryor,82.19,170.1,90.72,165.56,426.38,Single-ply,SBD,M
Boys,82.1,12,Nick Calderone,San Antonio Cole,82.01,151.95,108.86,145.15,405.97,Single-ply,SBD,M
Boys,82.1,13,Jeeremy Castillo,La Pryor,75.66,142.88,95.25,158.76,396.89,Single-ply,SBD,M
Boys,82.1,14,Elliot Ramirez,San Antonio Memorial,78.02,124.74,95.25,170.1,390.09,Single-ply,SBD,M
Boys,82.1,15,Alex Pena,Somerset,79.11,142.88,97.52,149.69,390.09,Single-ply,SBD,M
Boys,82.1,16,Cesar Morales,Somerset,81.01,120.2,83.91,165.56,369.68,Single-ply,SBD,M
Boys,82.1,17,Oscar de Luna,San Antonio Memorial,76.11,136.08,74.84,113.4,324.32,Single-ply,SBD,M
Boys,82.1,18,Emilio Alvarado,Crystal City,81.56,95.25,79.38,129.27,303.91,Single-ply,SBD,M
Boys,82.1,19,Bryce Macdonald,Castroville Medina Valley,77.02,92.99,77.11,106.59,276.69,Single-ply,SBD,M
Boys,82.1,20,Jacob Estala,San Antonio Memorial,77.38,68.04,61.23,115.67,244.94,Single-ply,SBD,M
Boys,82.1,DQ,Joe Rodriguez,Bandera,79.56,,,,,Single-ply,SBD,M
Boys,89.81,1,John Valdez,Somerset,83.28,240.4,149.69,210.92,601.01,Single-ply,SBD,M
Boys,89.81,2,Ryan Farrell,Universal City Randolph,89.72,204.12,131.54,213.19,548.85,Single-ply,SBD,M
Boys,89.81,3,Dylan Aguinaga,Lytle,82.64,217.72,113.4,213.19,544.31,Single-ply,SBD,M
Boys,89.81,4,Tyler Crisp,Poteet,89.81,217.72,111.13,215.46,544.31,Single-ply,SBD,M
Boys,89.81,5,Rudy Pena,San Antonio Kennedy,82.74,181.44,97.52,226.8,505.76,Single-ply,SBD,M
Boys,89.81,6,Demetri Molina,Somerset,83.01,215.46,120.2,170.1,505.76,Single-ply,SBD,M
Boys,89.81,7,David Nieto,Pearsall,87.09,185.97,124.74,183.7,494.42,Single-ply,SBD,M
Boys,89.81,8,Joey Sanchez,Somerset,88.36,190.51,111.13,188.24,489.88,Single-ply,SBD,M
Boys,89.81,9,Thomas Rodriguez,Somerset,87.27,197.31,95.25,190.51,483.08,Single-ply,SBD,M
Boys,89.81,10,Robert Cervantez,Dilley,88.9,185.97,104.33,192.78,483.08,Single-ply,SBD,M
Boys,89.81,11,Daniel Mann #2,Devine,88.45,167.83,111.13,192.78,471.74,Single-ply,SBD,M
Boys,89.81,12,Cole Brust,Universal City Randolph,84.64,158.76,113.4,188.24,460.4,Single-ply,SBD,M
Boys,89.81,13,Brandon Puente,Crystal City,88,190.51,92.99,158.76,442.25,Single-ply,SBD,M
Boys,89.81,14,Braden Sekula,San Antonio East Central,83.37,142.88,108.86,163.29,415.04,Single-ply,SBD,M
Boys,89.81,15,Dakota Marshall,Somerset,87.63,113.4,90.72,154.22,358.34,Single-ply,SBD,M
Boys,89.81,16,David Arvizo,La Pryor,86.64,124.74,83.91,147.42,356.07,Single-ply,SBD,M
Boys,89.81,17,Matt Swanson,Universal City Randolph,83.46,127.01,61.23,138.35,326.59,Single-ply,SBD,M
Boys,89.81,18,Bridger Netting,Castroville Medina Valley,84.73,120.2,70.31,117.93,308.44,Single-ply,SBD,M
Boys,89.81,19,Jose Chapa,Castroville Medina Valley,87.82,113.4,65.77,117.93,297.1,Single-ply,SBD,M
Boys,99.79,1,Joey Mendez,San Antonio Memorial,99.7,242.67,122.47,229.06,594.21,Single-ply,SBD,M
Boys,99.79,2,Bryan London,Universal City Randolph,92.35,226.8,122.47,231.33,580.6,Single-ply,SBD,M
Boys,99.79,3,Nick Delgado,Pleasanton,91.44,192.78,142.88,204.12,539.77,Single-ply,SBD,M
Boys,99.79,4,Freddy Larry,Universal City Randolph,96.16,199.58,122.47,217.72,539.77,Single-ply,SBD,M
Boys,99.79,5,David Bernal,Pleasanton,95.07,217.72,120.2,183.7,521.63,Single-ply,SBD,M
Boys,99.79,6,Aaron Lopez,Karnes City,95.35,190.51,122.47,195.04,508.02,Single-ply,SBD,M
Boys,99.79,7,Nicolas Casanova,Karnes City,90.26,192.78,108.86,204.12,505.76,Single-ply,SBD,M
Boys,99.79,8,Bryce Sandoval,Poteet,97.52,195.04,113.4,185.97,494.42,Single-ply,SBD,M
Boys,99.79,9,Andrew Garcia,Pleasanton,91.26,190.51,102.06,181.44,474,Single-ply,SBD,M
Boys,99.79,10,Robert Hinojosa,San Antonio Kennedy,97.34,195.04,72.57,190.51,458.13,Single-ply,SBD,M
Boys,99.79,11,Tyler Mamere,San Antonio Cole,95.89,163.29,115.67,172.37,451.32,Single-ply,SBD,M
Boys,99.79,12,Eli Alexander,Karnes City,94.8,154.22,106.59,181.44,442.25,Single-ply,SBD,M
Boys,99.79,13,Paulino Bosquez,San Antonio Kennedy,95.98,161.03,83.91,197.31,442.25,Single-ply,SBD,M
Boys,99.79,14,Bernard Aguilar,Poteet,90.85,161.03,79.38,170.1,410.5,Single-ply,SBD,M
Boys,99.79,15,Hector Soria,San Antonio East Central,93.8,158.76,102.06,142.88,403.7,Single-ply,SBD,M
Boys,99.79,16,Jose Coronado,San Antonio Memorial,92.44,158.76,92.99,149.69,401.43,Single-ply,SBD,M
Boys,99.79,17,Jc Evans,Pleasanton,95.16,142.88,97.52,142.88,383.29,Single-ply,SBD,M
Boys,99.79,18,Antonio Ramirez,Crystal City,93.53,147.42,77.11,142.88,367.41,Single-ply,SBD,M
Boys,99.79,19,Freddy Castellanos,Somerset,96.52,124.74,92.99,147.42,365.14,Single-ply,SBD,M
Boys,99.79,20,Tyler Wilson #4,Castroville Medina Valley,92.9,124.74,86.18,129.27,340.19,Single-ply,SBD,M
Boys,99.79,DQ,Jose Orellana,La Pryor,91.44,185.97,127.01,,,Single-ply,SBD,M
Boys,109.77,1,Leo Perez,Devine,100.06,274.42,151.95,213.19,639.57,Single-ply,SBD,M
Boys,109.77,2,Jacob Ybarra,Somerset,107.95,217.72,149.69,192.78,560.19,Single-ply,SBD,M
Boys,109.77,3,Joe Tovar,Somerset,105.05,226.8,124.74,195.04,546.58,Single-ply,SBD,M
Boys,109.77,4,Eli Rejino,Devine,103.33,215.46,131.54,190.51,537.51,Single-ply,SBD,M
Boys,109.77,5,Kyle Wilson,Bandera,108.5,197.31,120.2,204.12,521.63,Single-ply,SBD,M
Boys,109.77,6,Cory Opiela,Floresville,107.5,197.31,129.27,179.17,505.76,Single-ply,SBD,M
Boys,109.77,7,Juan Trevino,San Antonio East Central,103.06,208.65,117.93,170.1,496.68,Single-ply,SBD,M
Boys,109.77,8,Jp Ortiz,Devine,102.97,190.51,111.13,185.97,487.61,Single-ply,SBD,M
Boys,109.77,9,Andres Garzes,San Antonio Memorial,107.14,192.78,108.86,174.63,476.27,Single-ply,SBD,M
Boys,109.77,10,Martin Galvan,San Antonio Kennedy,106.87,174.63,106.59,181.44,462.66,Single-ply,SBD,M
Boys,109.77,11,Hector Garcia #8,Poteet,109.59,181.44,111.13,154.22,446.79,Single-ply,SBD,M
Boys,109.77,12,Robert Garza,San Antonio Kennedy,104.33,174.63,95.25,172.37,442.25,Single-ply,SBD,M
Boys,109.77,13,Martin Mendez,San Antonio Memorial,103.96,181.44,74.84,183.7,439.98,Single-ply,SBD,M
Boys,109.77,14,Ruben Molina,Dilley,100.06,176.9,102.06,158.76,437.72,Single-ply,SBD,M
Boys,109.77,15,Willie Friday,San Antonio Memorial,104.05,133.81,104.33,192.78,430.91,Single-ply,SBD,M
Boys,109.77,16,Dustin De La Vega,Somerset,102.97,142.88,115.67,161.03,419.57,Single-ply,SBD,M
Boys,109.77,17,Fabian Morales,San Antonio Memorial,105.69,145.15,99.79,145.15,390.09,Single-ply,SBD,M
Boys,109.77,18,Kyle Kellner,Karnes City,107.14,142.88,83.91,147.42,374.21,Single-ply,SBD,M
Boys,109.77,19,Ermillo Escamilla,Natalia,102.15,145.15,72.57,115.67,333.39,Single-ply,SBD,M
Boys,124.74,1,Joshua Macat,Lytle,112.58,260.82,127.01,224.53,612.35,Single-ply,SBD,M
Boys,124.74,2,Bj Frieda,Somerset,117.93,244.94,142.88,199.58,587.4,Single-ply,SBD,M
Boys,124.74,3,Mike Garza,Crystal City,122.38,249.48,117.93,195.04,562.45,Single-ply,SBD,M
Boys,124.74+,4,Michael Balderas,Poteet,124.78,251.74,113.4,197.31,562.45,Single-ply,SBD,M
Boys,124.74,5,Joe Reschmann,Somerset,121.93,229.06,147.42,183.7,560.19,Single-ply,SBD,M
Boys,124.74,6,Reuban Duran,San Antonio East Central,115.21,226.8,120.2,204.12,551.11,Single-ply,SBD,M
Boys,124.74,7,Cesar Romero,Universal City Randolph,114.58,204.12,106.59,219.99,530.7,Single-ply,SBD,M
Boys,124.74,8,Duke Aguirre,San Antonio Kennedy,115.48,204.12,136.08,188.24,528.44,Single-ply,SBD,M
Boys,124.74,9,Damien Cantu,San Antonio Kennedy,121.11,170.1,138.35,213.19,521.63,Single-ply,SBD,M
Boys,124.74,10,Noel Mallet,Pleasanton,122.11,213.19,117.93,174.63,505.76,Single-ply,SBD,M
Boys,124.74,11,Jose Nuno,Devine,124.01,185.97,120.2,192.78,498.95,Single-ply,SBD,M
Boys,124.74,12,Hector Serrano,Somerset,124.19,204.12,104.33,188.24,496.68,Single-ply,SBD,M
Boys,124.74,13,James Woods,Somerset,112.76,183.7,99.79,204.12,487.61,Single-ply,SBD,M
Boys,124.74,14,Marco Luevano,La Pryor,114.21,120.2,86.18,151.95,358.34,Single-ply,SBD,M
Boys,124.74,DQ,Lupe Tellez,La Pryor,110.86,,,,,Single-ply,SBD,M
Boys,124.74,DQ,Darren Garcia,Crystal City,115.67,260.82,,,,Single-ply,SBD,M
Boys,124.74,DQ,Jonah Masters,San Antonio Cole,119.75,165.56,92.99,,,Single-ply,SBD,M
Boys,124.74+,1,Trent Enriquez,Karnes City,138.53,251.74,161.03,231.33,644.1,Single-ply,SBD,M
Boys,124.74+,2,Lance Burleson,Rocksprings,126.28,231.33,158.76,217.72,607.81,Single-ply,SBD,M
Boys,124.74+,3,Daniel Ramirez,Somerset,126.19,249.48,136.08,215.46,601.01,Single-ply,SBD,M
Boys,124.74+,4,Julian Gonzalez,Dilley,125.65,249.48,127.01,217.72,594.21,Single-ply,SBD,M
Boys,124.74+,5,Austyn Carrizales,Dilley,140.98,244.94,113.4,231.33,589.67,Single-ply,SBD,M
Boys,124.74+,6,Ronnie Lucio,Poteet,142.25,249.48,136.08,195.04,580.6,Single-ply,SBD,M
Boys,124.74+,7,Mike Romero,Somerset,147.42,215.46,142.88,195.04,553.38,Single-ply,SBD,M
Boys,124.74+,8,Ray Navarro,Natalia,128.28,251.74,102.06,195.04,548.85,Single-ply,SBD,M
Boys,124.74+,9,Hector Sandoval,San Antonio East Central,125.65,181.44,111.13,204.12,496.68,Single-ply,SBD,M
Boys,124.74+,10,Kenneth Sallee,Natalia,133.81,190.51,108.86,170.1,469.47,Single-ply,SBD,M
Boys,124.74+,11,Jay Sandoval,San Antonio Memorial,154.58,172.37,108.86,179.17,460.4,Single-ply,SBD,M
Boys,124.74+,12,Chris Cobb,Somerset,136.53,158.76,102.06,163.29,424.11,Single-ply,SBD,M
Boys,124.74+,13,Jesse Martinez,San Antonio Kennedy,155.85,165.56,92.99,158.76,417.3,Single-ply,SBD,M
Boys,124.74+,14,Jesús Torres,Somerset,125.65,158.76,74.84,174.63,408.23,Single-ply,SBD,M
Boys,124.74+,15,Domanic Alaquinez,Somerset,131.54,113.4,97.52,142.88,353.8,Single-ply,SBD,M
Boys,124.74+,16,Tristan Chavera,Castroville Medina Valley,131.54,136.08,74.84,142.88,353.8,Single-ply,SBD,M
Boys,,NS,Nick Zavala,Crystal City,,,,,,Single-ply,SBD,M
