Division,WeightClassKg,Place,Name,Team,BodyweightKg,Best3SquatKg,Best3BenchKg,Best3DeadliftKg,TotalKg,Equipment,Event,Sex,BirthDate
Boys,51.71,1,Jacob Zea,Katy Taylor,50.8,113.4,56.7,113.4,283.5,Single-ply,SBD,M,
Boys,51.71,2,Hunter Kopecky,East Bernard,49.67,86.18,47.63,102.06,235.87,Single-ply,SBD,M,
Boys,51.71,3,Dalton Stanley,East Bernard,45.81,81.65,40.82,90.72,213.19,Single-ply,SBD,M,
Boys,59.87,1,Victor Kajopelaye,Houston Cypress Park,58.74,127.01,77.11,151.95,356.07,Single-ply,SBD,M,
Boys,59.87,2,Kaleb Rivera,East Bernard,58.97,117.93,72.57,115.67,306.17,Single-ply,SBD,M,
Boys,67.13,1,Ben Bissaillon,Katy Taylor,63.96,133.81,90.72,147.42,371.95,Single-ply,SBD,M,
Boys,67.13,2,Joseph Cooper,East Bernard,65.32,142.88,81.65,147.42,371.95,Single-ply,SBD,M,
Boys,67.13,3,Mason Winkler,East Bernard,65.54,124.74,68.04,140.61,333.39,Single-ply,SBD,M,
Boys,67.13,4,Colin Marcantel,East Bernard,64.86,136.08,65.77,124.74,326.59,Single-ply,SBD,M,
Boys,67.13,5,Aaron Bias,Houston Cypress Park,60.33,113.4,68.04,142.88,324.32,Single-ply,SBD,M,
Boys,67.13,6,Lance Heimann,East Bernard,62.82,115.67,52.16,131.54,299.37,Single-ply,SBD,M,
Boys,74.84,1,Rene Hernandez #3,Houston Cypress Falls,74.16,161.03,99.79,165.56,426.38,Single-ply,SBD,M,
Boys,74.84,2,Zander Brown,Houston Cypress Park,70.08,142.88,86.18,145.15,374.21,Single-ply,SBD,M,
Boys,74.84,3,Lawson Benedict,Houston Cypress Falls,73.03,113.4,86.18,136.08,335.66,Single-ply,SBD,M,
Boys,82.1,1,Juan Ortiz,Houston Cypress Park,81.19,185.97,104.33,185.97,476.27,Single-ply,SBD,M,
Boys,82.1,2,Garland Thompson,Houston Cypress Falls,80.97,147.42,99.79,163.29,410.5,Single-ply,SBD,M,
Boys,82.1,3,Kevin Umanzor,Houston Cypress Falls,80.06,142.88,79.38,174.63,396.89,Single-ply,SBD,M,
Boys,82.1,4,Clint McAnally,East Bernard,78.47,136.08,68.04,138.35,342.46,Single-ply,SBD,M,
Boys,89.81,1,Nick Goedde,Katy Taylor,88.68,197.31,120.2,251.74,569.26,Single-ply,SBD,M,
Boys,89.81,2,Daniel Ramirez,Katy Taylor,85.28,138.35,83.91,142.88,365.14,Single-ply,SBD,M,
Boys,89.81,3,Nick Mauer,Houston Cypress Park,83.23,,117.93,,117.93,Single-ply,B,M,
Boys,99.79,1,Caleb Pollard,Houston Cypress Falls,90.26,165.56,111.13,183.7,460.4,Single-ply,SBD,M,
Boys,99.79,2,Christopher Martinez,Houston Cypress Park,97.52,183.7,90.72,185.97,460.4,Single-ply,SBD,M,
Boys,99.79,3,Landan Mowry,Katy Taylor,94.8,149.69,92.99,185.97,428.64,Single-ply,SBD,M,
Boys,99.79,4,Jarra Anderson,Houston Cypress Park,97.98,147.42,95.25,161.03,403.7,Single-ply,SBD,M,
Boys,99.79,5,Jayden Wallace,Houston Cypress Falls,93.21,147.42,97.52,156.49,401.43,Single-ply,SBD,M,
Boys,99.79,6,Rolie Perez,East Bernard,90.72,127.01,72.57,142.88,342.46,Single-ply,SBD,M,
Boys,109.77,1,Jahmai Edwards,Katy Taylor,108.18,217.72,138.35,233.6,589.67,Single-ply,SBD,M,
Boys,109.77,2,Aaron Goings,Houston Cypress Park,102.06,210.92,102.06,226.8,539.77,Single-ply,SBD,M,
Boys,109.77,3,Trevor McCoy,Houston Cypress Falls,105.01,190.51,115.67,181.44,487.61,Single-ply,SBD,M,
Boys,109.77,4,Trey Brooks,Houston Cypress Falls,105.23,165.56,113.4,188.24,467.2,Single-ply,SBD,M,
Boys,109.77,5,David Montenegro,Houston Cypress Falls,106.14,172.37,88.45,192.78,453.59,Single-ply,SBD,M,
Boys,124.74,1,Julian Mora,Houston Cypress Park,124.06,213.19,106.59,219.99,539.77,Single-ply,SBD,M,
Boys,124.74,2,Rodrigo Ramirez,Katy Taylor,115.67,192.78,113.4,226.8,532.97,Single-ply,SBD,M,
Boys,124.74,3,Elliot Jones,Houston Cypress Falls,118.39,206.38,117.93,192.78,517.1,Single-ply,SBD,M,
Boys,124.74,4,Kyle Edwards,Katy Taylor,122.02,179.17,102.06,183.7,464.93,Single-ply,SBD,M,
Boys,124.74,5,Bronson Burton,Katy Taylor,115.21,111.13,65.77,136.08,312.98,Single-ply,SBD,M,
Boys,124.74+,1,Jahangir Samandov,Katy Taylor,125.42,204.12,113.4,204.12,521.63,Single-ply,SBD,M,
