Division,WeightClassKg,Place,Name,Team,BodyweightKg,Best3SquatKg,Best3BenchKg,Best3DeadliftKg,TotalKg,Equipment,Event,Sex,BirthDate
Boys,55.79,1,Jordan Barlagne,Leonard,53.43,113.4,68.04,127.01,308.44,Single-ply,SBD,M,
Boys,59.87,1,Cannon Miller,Wolfe City,58.69,120.2,68.04,95.25,283.5,Single-ply,SBD,M,
Boys,59.87,2,Carson Herron,Wolfe City,59.33,95.25,72.57,79.38,247.21,Single-ply,SBD,M,
Boys,67.13,1,Josh Barlagne,Leonard,65.77,174.63,104.33,181.44,460.4,Single-ply,SBD,M,
Boys,67.13,2,Mason Underwood,Leonard,63.68,122.47,83.91,142.88,349.27,Single-ply,SBD,M,
Boys,67.13,3,Mario Gonzales,Whitewright,62.69,120.2,79.38,127.01,326.59,Single-ply,SBD,M,
Boys,67.13,4,Victor Hernandez,Wolfe City,65.68,102.06,65.77,108.86,276.69,Single-ply,SBD,M,
Boys,74.84,1,Truett Holloway,Whitewright,72.12,151.95,90.72,142.88,385.55,Single-ply,SBD,M,
Boys,74.84,2,Mason Rogers,Leonard,69.49,92.99,77.11,181.44,351.53,Single-ply,SBD,M,
Boys,74.84,3,Jarrett Tisdale,Wolfe City,71.03,120.2,92.99,120.2,333.39,Single-ply,SBD,M,
Boys,82.1,1,John Wheeler,Leonard,81.1,181.44,117.93,183.7,483.08,Single-ply,SBD,M,
Boys,82.1,2,Dalton Doyle,Leonard,77.75,163.29,104.33,185.97,453.59,Single-ply,SBD,M,
Boys,82.1,3,Caleb Arris,Bonham,80.92,140.61,90.72,163.29,394.63,Single-ply,SBD,M,
Boys,82.1,4,Carson Arris,Bonham,78.02,138.35,61.23,136.08,335.66,Single-ply,SBD,M,
Boys,89.81,1,Kasey Sanders #1,Whitewright,85.82,192.78,138.35,172.37,503.49,Single-ply,SBD,M,
Boys,89.81,2,Jacory Bush,Leonard,87.36,181.44,117.93,185.97,485.34,Single-ply,SBD,M,
Boys,89.81,3,Maliek Harris,Leonard,87.63,145.15,92.99,195.04,433.18,Single-ply,SBD,M,
Boys,89.81,4,Chandler Holman,Leonard,83.1,136.08,95.25,145.15,376.48,Single-ply,SBD,M,
Boys,89.81,5,Christian Hernandez,Wolfe City,89.45,127.01,99.79,124.74,351.53,Single-ply,SBD,M,
Boys,89.81,6,Alex Angel,Wolfe City,88.45,131.54,88.45,129.27,349.27,Single-ply,SBD,M,
Boys,89.81,7,Reese Futch,Whitewright,87.09,131.54,70.31,136.08,337.93,Single-ply,SBD,M,
Boys,89.81,8,Gage Sanders,Wolfe City,86.64,95.25,79.38,88.45,263.08,Single-ply,SBD,M,
Boys,99.79,1,Shane Davis,Whitewright,99.06,254.01,183.7,229.06,666.78,Single-ply,SBD,M,
Boys,99.79,2,Angel Cruz,Whitewright,90.26,199.58,122.47,192.78,514.83,Single-ply,SBD,M,
Boys,99.79,3,Braylin Garcia,Leonard,94.44,190.51,142.88,142.88,476.27,Single-ply,SBD,M,
Boys,99.79,4,Yunior Burciaga,Wolfe City,91.9,124.74,92.99,108.86,326.59,Single-ply,SBD,M,
Boys,109.77,1,Marc Anthony Gonzales,Whitewright,109.77,226.8,136.08,226.8,589.67,Single-ply,SBD,M,
Boys,109.77,2,Justin McBride,Bonham,106.87,208.65,113.4,192.78,514.83,Single-ply,SBD,M,
Boys,109.77,3,Bradley Carruth,Bonham,107.59,188.24,104.33,192.78,485.34,Single-ply,SBD,M,
Boys,109.77,4,Ezayl Tovar,Wolfe City,105.78,136.08,117.93,120.2,374.21,Single-ply,SBD,M,
Boys,109.77,5,Alex Puentes,Wolfe City,101.6,115.67,86.18,95.25,297.1,Single-ply,SBD,M,
Boys,109.77,6,Cody Kilgo,Wolfe City,109.68,117.93,74.84,102.06,294.84,Single-ply,SBD,M,
Boys,124.74,1,Jack Porter,Bonham,115.39,249.48,136.08,217.72,603.28,Single-ply,SBD,M,
Boys,124.74,2,Brayden Harris,Leonard,110.59,226.8,142.88,190.51,560.19,Single-ply,SBD,M,
