Division,WeightClassKg,Place,Name,Team,BodyweightKg,Best3SquatKg,Best3BenchKg,Best3DeadliftKg,TotalKg,Equipment,Event,Sex,BirthDate
Boys,51.71,1,Yamin Sultan,College Station,51.26,124.74,70.31,138.35,333.39,Single-ply,SBD,M,
Boys,51.71,2,Wyatt Benett,Trinity,51.26,127.01,63.5,120.2,310.71,Single-ply,SBD,M,
Boys,51.71,DQ,M. Green,Huntsville,50.71,113.4,65.77,,,Single-ply,SBD,M,
Boys,51.71,DQ,C Hooks,Huntsville,48.99,95.25,68.04,,,Single-ply,SBD,M,
Boys,55.79,1,Tommy Hession,College Station,54.25,206.38,102.06,201.85,510.29,Single-ply,SBD,M,
Boys,55.79,2,Rock Page,Cleveland Tarkington,54.88,120.2,79.38,124.74,324.32,Single-ply,SBD,M,
Boys,55.79,3,Trey LaPrarie,Elkhart,55.79,129.27,65.77,124.74,319.78,Single-ply,SBD,M,
Boys,55.79,4,Devin Davila,Corrigan-Camden,55.79,113.4,70.31,129.27,312.98,Single-ply,SBD,M,
Boys,59.87,1,Jeremiah Salazar,Cleveland,59.42,147.42,83.91,161.03,392.36,Single-ply,SBD,M,
Boys,59.87,2,Jayden Ford,Trinity,59.78,79.38,52.16,86.18,217.72,Single-ply,SBD,M,
Boys,67.13,1,Remington Lassman,Trinity,67.09,201.85,104.33,185.97,492.15,Single-ply,SBD,M,
Boys,67.13,2,Gabriel Tan,College Station,66.41,188.24,120.2,176.9,485.34,Single-ply,SBD,M,
Boys,67.13,3,M Tatum,Huntsville,67.13,190.51,113.4,181.44,485.34,Single-ply,SBD,M,
Boys,67.13,4,Cyrus Martinez,Shepherd,62.51,172.37,88.45,183.7,444.52,Single-ply,SBD,M,
Boys,67.13,5,C. Schroeder,Huntsville,66.22,151.95,92.99,181.44,426.38,Single-ply,SBD,M,
Boys,67.13,6,Braiden York,Elkhart,61.96,170.1,97.52,154.22,421.84,Single-ply,SBD,M,
Boys,67.13,7,Ryan Barbera,Chilton,63.41,142.88,90.72,163.29,396.89,Single-ply,SBD,M,
Boys,67.13,8,Jordan Cutaia,Shepherd,60.96,111.13,61.23,129.27,301.64,Single-ply,SBD,M,
Boys,67.13,9,Trenton McDaniel,Shepherd,60.78,111.13,61.23,117.93,290.3,Single-ply,SBD,M,
Boys,67.13,10,Ethan Millard,Cleveland Tarkington,63.05,117.93,54.43,117.93,290.3,Single-ply,SBD,M,
Boys,67.13,DQ,Cole Caldwell,Trinity,67.13,,,,,Single-ply,SBD,M,
Boys,74.84,1,Joel Weekes,Shepherd,72.12,235.87,140.61,231.33,607.81,Single-ply,SBD,M,
Boys,74.84,2,Cole Odom,Trinity,74.75,213.19,131.54,190.51,535.24,Single-ply,SBD,M,
Boys,74.84,3,Pablo Rodarte,Elkhart,74.48,195.04,102.06,192.78,489.88,Single-ply,SBD,M,
Boys,74.84,4,K. Lee,Huntsville,71.85,158.76,113.4,201.85,474,Single-ply,SBD,M,
Boys,74.84,5,Dylan Errington,Cleveland Tarkington,69.67,161.03,127.01,183.7,471.74,Single-ply,SBD,M,
Boys,74.84,6,Tatum Clements,Cleveland Tarkington,74.39,161.03,92.99,174.63,428.64,Single-ply,SBD,M,
Boys,74.84,7,Cody Russell,Shepherd,72.12,142.88,102.06,165.56,410.5,Single-ply,SBD,M,
Boys,74.84,8,Andy Gonzalez,Cleveland,74.12,158.76,92.99,158.76,410.5,Single-ply,SBD,M,
Boys,74.84,9,Pedro Sánchez,Cleveland,71.58,158.76,83.91,142.88,385.55,Single-ply,SBD,M,
Boys,74.84,10,Jack Gilligan,Elkhart,69.31,151.95,81.65,140.61,374.21,Single-ply,SBD,M,
Boys,74.84,DQ,Lane Williams,Elkhart,68.76,154.22,77.11,,,Single-ply,SBD,M,
Boys,82.1,1,Ethan Hall,College Station,79.56,272.16,158.76,240.4,671.32,Single-ply,SBD,M,
Boys,82.1,2,Keanu Wolfe,Elkhart,81.56,231.33,136.08,206.38,573.79,Single-ply,SBD,M,
Boys,82.1,3,Brandon Pitty,Cleveland Tarkington,77.56,222.26,115.67,213.19,551.11,Single-ply,SBD,M,
Boys,82.1,4,Max Lara,Elkhart,76.84,231.33,124.74,192.78,548.85,Single-ply,SBD,M,
Boys,82.1,5,Tanner Lacey,Shepherd,80.92,192.78,120.2,206.38,519.36,Single-ply,SBD,M,
Boys,82.1,6,Austin Pittman,Elkhart,76.48,197.31,120.2,190.51,508.02,Single-ply,SBD,M,
Boys,82.1,7,Kolton Griswold,College Station,79.74,192.78,106.59,192.78,492.15,Single-ply,SBD,M,
Boys,82.1,8,Alexis Cortes,Cleveland,80.29,170.1,115.67,183.7,469.47,Single-ply,SBD,M,
Boys,82.1,9,C Skeens,Huntsville,81.19,161.03,95.25,176.9,433.18,Single-ply,SBD,M,
Boys,82.1,10,Ian Puckett,Trinity,75.57,165.56,106.59,133.81,405.97,Single-ply,SBD,M,
Boys,82.1,11,Isidoro Lopez,Shepherd,80.2,154.22,90.72,154.22,399.16,Single-ply,SBD,M,
Boys,82.1,12,Ethan Pullin,Corrigan-Camden,80.74,149.69,79.38,158.76,387.82,Single-ply,SBD,M,
Boys,82.1,13,Giovanni Gutierrez,Trinity,81.37,133.81,88.45,151.95,374.21,Single-ply,SBD,M,
Boys,89.81,1,Timmy Watson,New Waverly,88.36,215.46,120.2,201.85,537.51,Single-ply,SBD,M,
Boys,89.81,2,David McKendree,Trinity,86.64,204.12,129.27,192.78,526.17,Single-ply,SBD,M,
Boys,89.81,3,B Redd,Huntsville,84.19,181.44,147.42,190.51,519.36,Single-ply,SBD,M,
Boys,89.81,4,Kendrae Lewis,Cleveland,84.37,204.12,113.4,190.51,508.02,Single-ply,SBD,M,
Boys,89.81,5,A Sandals,Huntsville,86.18,174.63,122.47,181.44,478.54,Single-ply,SBD,M,
Boys,89.81,6,Jarius Hood,Corrigan-Camden,87.72,170.1,88.45,204.12,462.66,Single-ply,SBD,M,
Boys,89.81,7,Aden Standly,Corrigan-Camden,85.28,147.42,65.77,174.63,387.82,Single-ply,SBD,M,
Boys,99.79,1,Landen Robbins,Shepherd,92.26,249.48,129.27,238.14,616.89,Single-ply,SBD,M,
Boys,99.79,2,Miguel Barron,Chilton,90.81,195.04,136.08,190.51,521.63,Single-ply,SBD,M,
Boys,99.79,3,Ld Smith,Elkhart,95.89,206.38,104.33,208.65,519.36,Single-ply,SBD,M,
Boys,99.79,4,Ricky Iguanzo,Corrigan-Camden,98.34,188.24,111.13,210.92,510.29,Single-ply,SBD,M,
Boys,99.79,5,Lorenzo Robles,Chilton,97.16,190.51,136.08,158.76,485.34,Single-ply,SBD,M,
Boys,99.79,6,Logan Barnett,Cleveland,94.08,188.24,117.93,176.9,483.08,Single-ply,SBD,M,
Boys,99.79,7,Erik Lara,Elkhart,92.62,197.31,113.4,163.29,474,Single-ply,SBD,M,
Boys,99.79,8,Joshual Jack,Cleveland,94.98,161.03,111.13,199.58,471.74,Single-ply,SBD,M,
Boys,99.79,9,Colton Bossie,Chilton,93.62,161.03,117.93,190.51,469.47,Single-ply,SBD,M,
Boys,99.79,10,E Mendoza,Huntsville,92.71,181.44,90.72,172.37,444.52,Single-ply,SBD,M,
Boys,99.79,11,Aaron Caceres,Trinity,90.72,174.63,108.86,154.22,437.72,Single-ply,SBD,M,
Boys,99.79,12,Landon Mayrant,New Waverly,92.9,145.15,97.52,140.61,383.29,Single-ply,SBD,M,
Boys,99.79,DQ,Garrett Craig,Trinity,98.16,179.17,102.06,,,Single-ply,SBD,M,
Boys,109.77,1,Jess Shows,Corrigan-Camden,109.59,197.31,136.08,224.53,557.92,Single-ply,SBD,M,
Boys,109.77,2,M. Fisher,Huntsville,108.05,201.85,122.47,206.38,530.7,Single-ply,SBD,M,
Boys,109.77,3,Diego Martinez,Cleveland,102.51,140.61,86.18,158.76,385.55,Single-ply,SBD,M,
Boys,124.74,1,J. Smith,Huntsville,120.66,249.48,142.88,215.46,607.81,Single-ply,SBD,M,
Boys,124.74,2,Colton Smith #2,Trinity,124.56,197.31,115.67,183.7,496.68,Single-ply,SBD,M,
Boys,124.74,3,Connor Colbert,Cleveland Tarkington,121.11,174.63,117.93,172.37,464.93,Single-ply,SBD,M,
Boys,124.74,4,Noah Castro,Shepherd,114.12,158.76,70.31,170.1,399.16,Single-ply,SBD,M,
Boys,124.74,DQ,Gavin Edwards,Cleveland Tarkington,117.21,254.01,,,,Single-ply,SBD,M,
Boys,124.74,DQ,Braden Steele,Chilton,111.95,,,,,Single-ply,SBD,M,
Boys,139.71,1,Christopher Smith,Huntsville,129.27,272.16,131.54,229.06,632.76,Single-ply,SBD,M,
Boys,139.71,2,Leihten Beck,Shepherd,126.1,251.74,142.88,219.99,614.62,Single-ply,SBD,M,
Boys,139.71,3,Chris Rodriguez,Cleveland,127.01,213.19,163.29,226.8,603.28,Single-ply,SBD,M,
Boys,139.71,4,Elis Caceres,Trinity,132.18,229.06,117.93,219.99,566.99,Single-ply,SBD,M,
Boys,139.71,5,Luis Gonzalez,Cleveland,127.64,199.58,127.01,192.78,519.36,Single-ply,SBD,M,
Boys,139.71,6,Kyler Colbert,Cleveland Tarkington,132.9,188.24,133.81,192.78,514.83,Single-ply,SBD,M,
Boys,139.71,7,J Barkin,Huntsville,126.55,122.47,77.11,149.69,349.27,Single-ply,SBD,M,
Boys,139.71+,1,Kelvin Hernandez,Shepherd,141.97,192.78,108.86,174.63,476.27,Single-ply,SBD,M,
Boys,139.71+,2,B McGraw,Huntsville,182.34,172.37,81.65,174.63,428.64,Single-ply,SBD,M,
Boys,,NS,D. Cruz,Huntsville,,,,,,Single-ply,SBD,M,
Boys,,NS,J Casanova,Huntsville,,,,,,Single-ply,SBD,M,
Boys,,NS,Tj Calhoun,Elkhart,,,,,,Single-ply,SBD,M,
Boys,,NS,S Jones,Huntsville,,,,,,Single-ply,SBD,M,
Boys,,NS,J Winfrey,Huntsville,,,,,,Single-ply,SBD,M,
Boys,,NS,J Ruffin,Huntsville,,,,,,Single-ply,SBD,M,
Boys,,NS,Justin Scarborough,Cleveland Tarkington,,,,,,Single-ply,SBD,M,
Boys,,NS,Brodrick Wilson,College Station,,,,,,Single-ply,SBD,M,
Boys,,NS,Cinco Deegear,College Station,,,,,,Single-ply,SBD,M,
Boys,,NS,Auristel Mendez,Cleveland,,,,,,Single-ply,SBD,M,
Boys,,NS,Elijah Beechum,Chilton,,,,,,Single-ply,SBD,M,
Boys,,NS,Nundai Zuzeuta,Chilton,,,,,,Single-ply,SBD,M,
Boys,,NS,Isaiah Harrison,Cleveland,,,,,,Single-ply,SBD,M,
Boys,,NS,B. Ross,Huntsville,,,,,,Single-ply,SBD,M,
Boys,,NS,Jake Chapman,Shepherd,,,,,,Single-ply,SBD,M,
Boys,,NS,Trent Allis,Shepherd,,,,,,Single-ply,SBD,M,
